<?xml version="1.0" standalone="no"?>
<!DOCTYPE svg PUBLIC "-//W3C//DTD SVG 1.1//EN" "http://www.w3.org/Graphics/SVG/1.1/DTD/svg11.dtd" >
<!--
2016-6-22: Created.
-->
<svg xmlns="http://www.w3.org/2000/svg">
<metadata>
Created by FontForge 20120731 at Wed Jun 22 15:25:23 2016
 By root
Created by root with FontForge 2.0 (http://fontforge.sf.net)
</metadata>
<defs>
<font id="Flaticon" horiz-adv-x="512" >
  <font-face 
    font-family="Flaticon"
    font-weight="500"
    font-stretch="normal"
    units-per-em="512"
    panose-1="2 0 6 3 0 0 0 0 0 0"
    ascent="448"
    descent="-64"
    bbox="-0.000244141 -64.0021 512.002 448"
    underline-thickness="25.6"
    underline-position="-51.2"
    unicode-range="U+0020-F141"
  />
    <missing-glyph />
    <glyph glyph-name="space" unicode=" " horiz-adv-x="200" 
 />
    <glyph glyph-name="uniF111" unicode="&#xf111;" 
d="M475.466 178.684l-219.466 -205.831l-219.466 205.831c-51.0859 54.5742 -48.2432 140.226 6.31348 191.299l4.95801 4.63672c54.5605 51.0713 140.207 48.248 191.296 -6.32617l16.8984 -17.5928l16.9004 17.5928c51.0869 54.5742 136.735 57.3975 191.301 6.32617
l4.95801 -4.63672c54.5498 -51.0732 57.3926 -136.725 6.30664 -191.299z" />
    <glyph glyph-name="uniF110" unicode="&#xf110;" 
d="M512 428.385v-370.07h-59.8877v-102.699h-130.991v270.115h123.125v134.9h-376.492v-134.9h123.13v-270.115h-130.991v102.699h-59.8926v370.07h512z" />
    <glyph glyph-name="uniF10E" unicode="&#xf10e;" 
d="M297.774 -2.98926v194.696h171.501v-255.709h-426.551v255.711h171.501v-194.695zM495.66 216.079h-479.32v102.606h61.8174c-5.89844 12.1943 -9.0498 26.668 -9.0498 43.0586c0 53.2021 33.0498 86.2559 86.252 86.2559c51.3818 0 83.1572 -43.9717 101.386 -83.7168
c1.16895 2.47461 2.38281 4.95996 3.65527 7.44824c32.1338 63.0361 70.0762 76.2686 96.2451 76.2686c53.2002 0 86.2471 -33.0537 86.2471 -86.2578c0 -16.3916 -3.14746 -30.8643 -9.04785 -43.0586h61.8154v-102.604zM227.041 319.458
c-10.834 32.8066 -33.9199 84.5703 -71.6816 84.5703c-10.4551 0 -42.2734 0 -42.2734 -42.2842s31.8184 -42.2842 42.2734 -42.2842h71.6816v-0.00195312zM398.92 361.742c0 42.2832 -31.8174 42.2832 -42.2744 42.2832c-33.002 0 -58 -48.8184 -70.9453 -84.5693h70.9453
c10.4551 0.00195312 42.2744 0.00195312 42.2744 42.2861z" />
    <glyph glyph-name="uniF10D" unicode="&#xf10d;" 
d="M26.875 333.885v83.2559h132.333v30.8594h193.579v-30.8594h132.338v-83.2559h-23.4004l-26.1768 -397.887h-359.099l-26.1758 397.887h-23.3984zM306.15 279.668v-281.946h49.0898v281.946h-49.0898zM156.755 279.668v-281.946h49.0947v281.946h-49.0947z" />
    <glyph glyph-name="uniF116" unicode="&#xf116;" 
d="M255.998 448c78.4434 0 142.263 -63.8184 142.263 -142.263v-84.5723h37.2266v-285.165h-358.975v285.165h37.2266v84.5723c0 78.4443 63.8164 142.263 142.259 142.263zM286.242 20.9746v33.127c0 16.6992 -13.541 30.2441 -30.2441 30.2441
c-16.7021 0 -30.2451 -13.5449 -30.2451 -30.2441v-33.127c0 -16.7031 13.543 -30.2441 30.2451 -30.2441c16.7031 0 30.2441 13.541 30.2441 30.2441zM333.45 221.165v84.5723c0 42.7061 -34.7451 77.4521 -77.4521 77.4521
c-42.7061 0 -77.4482 -34.7461 -77.4482 -77.4521v-84.5723h154.9z" />
    <glyph glyph-name="uniF11F" unicode="&#xf11f;" 
d="M512 326.944v-390.944h-512v512h390.946zM424.264 96.4473v184.87h-78.9463v78.9463h-257.581v-265.024l118.29 118.293l99.9932 -99.9883l50.5732 50.5742z" />
    <glyph glyph-name="uniF129" unicode="&#xf129;" 
d="M56.9072 350.092l-56.9072 15.0391l16.3506 61.8779l104.56 -27.6299v-44.6016h391.09l-66.8066 -217.515h-324.283v-49.1162h310.731l-17.4043 -61.8701h-42.5107c5.10547 -7.17285 8.13672 -15.9238 8.13672 -25.3965c0 -24.2383 -19.6465 -43.8867 -43.8848 -43.8867
s-43.8896 19.6484 -43.8896 43.8867c0 9.47266 3.03418 18.2236 8.1377 25.3965h-120.51c5.10547 -7.17285 8.13672 -15.9238 8.13672 -25.3965c0 -24.2383 -19.6465 -43.8867 -43.8848 -43.8867s-43.8887 19.6484 -43.8887 43.8867
c0 9.47266 3.0332 18.2236 8.13867 25.3965h-19.3096h-32.002v323.815z" />
    <glyph glyph-name="uniF130" unicode="&#xf130;" 
d="M176.473 24.2354c0 -48.7295 -39.5039 -88.2334 -88.2324 -88.2334c-48.7344 0 -88.2402 39.5059 -88.2402 88.2334c0 48.7236 39.5059 88.2373 88.2373 88.2373c48.7314 0.00195312 88.2354 -39.5137 88.2354 -88.2373zM78.1748 278.879
c145.961 0 264.707 -118.745 264.709 -264.709h-88.2373c0 97.3115 -79.1631 176.477 -176.472 176.477v88.2324zM100.234 448c227.047 0 411.766 -184.717 411.766 -411.769h-88.2373c0 178.399 -145.134 323.533 -323.528 323.533v88.2354z" />
    <glyph glyph-name="uniF121" unicode="&#xf121;" 
d="M512 226.261l-67.0537 -67.0742l-41.0146 41.0166l-91.0566 -110.116l31.4854 -31.4854l-67.0625 -67.0537l-80.9824 80.9863l-170.824 -136.534l-25.4912 25.4863l136.536 170.827l-80.9863 80.9863l67.0586 67.0586l31.4834 -31.4814l110.118 91.0527l-41.0186 41.0166
l67.0693 67.0537z" />
    <glyph glyph-name="uniF11D" unicode="&#xf11d;" 
d="M512 326.944v-390.944h-512v512h390.946zM424.264 23.7363v257.581h-78.9434v78.9463h-257.584v-336.527h336.527z" />
    <glyph glyph-name="uniF108" unicode="&#xf108;" 
d="M419.262 240.326h77.1875v-304.326h-480.898v304.326h77.1895v-227.139h326.521v227.139zM414.188 273.4l-158.188 -187.154l-158.189 187.156h73.8545v174.598h168.662v-174.6h73.8604z" />
    <glyph glyph-name="uniF112" unicode="&#xf112;" 
d="M446.342 -64h-380.684v288.321h-48.2705v44.9805l238.612 178.698l238.612 -178.698v-44.9805h-48.2705v-288.321zM193.343 154.604v-158.845h125.319v158.845h-125.319z" />
    <glyph glyph-name="uniF119" unicode="&#xf119;" 
d="M512 -37.8047l-108.355 69.0605h-403.645v390.549h512v-459.609zM380.428 149.931v47.6279h-248.855v-47.6279h248.855zM380.428 255.502v47.6279h-248.855v-47.6279h248.855z" />
    <glyph glyph-name="uniF10F" unicode="&#xf10f;" 
d="M456.526 239.918l55.4736 -55.4727l-123.053 -123.049l-55.4736 55.4688l13.6143 13.6104l-234.039 234.039l56.0615 56.0615s29.9258 -34.085 52.6934 -29.6787c22.7686 4.40723 35.0117 21.4912 35.0117 21.4912l186.093 -186.093zM268.305 169.183l-205.762 -205.763
l-62.543 62.543l205.761 205.762z" />
    <glyph glyph-name="uniF104" unicode="&#xf104;" 
d="M256 -64c-141.158 0 -256 114.837 -256 256c0 141.158 114.842 256 256 256c141.163 0 256 -114.842 256 -256c0 -141.163 -114.837 -256 -256 -256zM256 378.184c-102.662 0 -186.182 -83.5215 -186.182 -186.184s83.5195 -186.184 186.182 -186.184
s186.184 83.5215 186.184 186.184s-83.5215 186.184 -186.184 186.184zM168.567 93.5459l-15.9697 16.9307l75.4766 71.1807v140.67h55.8516v-102.401h89.6465v-55.8564h-130.223z" />
    <glyph glyph-name="uniF124" unicode="&#xf124;" 
d="M479.644 107.244l-79.7891 57.8467v142.398h-220.766v-60.7178l-140.748 100.612l140.748 100.616v-60.7217h300.555v-280.034zM473.659 36.6143l-140.744 -100.616v60.7197h-300.559v280.034l79.7891 -57.8467v-142.396h220.768v60.7217z" />
    <glyph glyph-name="uniF10A" unicode="&#xf10a;" 
d="M256.001 341.045c141.391 0 256.001 -149.046 256.001 -149.046s-114.61 -149.046 -256.001 -149.046s-256.001 149.046 -256.001 149.046s114.61 149.046 256.001 149.046zM256.001 104.852c48.124 0 87.1475 39.0234 87.1475 87.1475
c0 48.125 -39.0234 87.1436 -87.1475 87.1436c-48.125 0 -87.1436 -39.0195 -87.1436 -87.1436s39.0176 -87.1475 87.1436 -87.1475zM300.749 227.619l-35.624 -35.6201l35.624 -35.6201c-10.1963 -12.1816 -25.5059 -19.9453 -42.6504 -19.9453
c-30.6777 0 -55.5635 24.8887 -55.5635 55.5635c0 30.6709 24.8857 55.5596 55.5635 55.5596c17.1445 0.00390625 32.4541 -7.75977 42.6504 -19.9375z" />
    <glyph glyph-name="uniF114" unicode="&#xf114;" 
d="M174.783 -64l29.5303 236.604h-70.8818l29.5312 275.396h174.254l-59.0615 -190.063h100.413z" />
    <glyph glyph-name="uniF105" unicode="&#xf105;" 
d="M500.932 380.026c3.02246 -12.6924 27.9727 -125.991 -25.9111 -194.22c-17.1484 -21.709 -49.8145 -47.584 -108.056 -47.584h-4.3877c-15.6768 -18.0908 -35.793 -32.2256 -58.6885 -40.6426v-65.8066h71.6367v-95.7754h-239.051v95.7754h71.6387v64.8457
c-24.0527 8.27539 -45.1895 22.7793 -61.499 41.6035h-1.57422c-58.2461 0 -90.9121 25.877 -108.058 47.584c-53.8867 68.2256 -28.9365 181.527 -25.9141 194.22l5.87305 24.6699h94.7861v43.3037h285.736v-43.3037h97.5947zM111.719 207.82l0.00878906 132.666h-42.417
c-4.21875 -34.2441 -4.67188 -86.2012 18.1211 -114.96c6.58301 -8.30566 13.8125 -13.8975 24.2871 -17.7061zM424.633 225.608c22.6084 28.624 22.0977 81.001 18.0176 114.881h-43.583v-133.1c10.5059 3.82227 18.9727 9.87207 25.5654 18.2188z" />
    <glyph glyph-name="uniF101" unicode="&#xf101;" 
d="M72.6924 -64v353.975h366.614v-353.975l-183.309 129.58zM72.6924 353.901v94.0986h366.612v-94.0986h-366.612z" />
    <glyph glyph-name="uniF118" unicode="&#xf118;" 
d="M0 143.005v97.9902h97.9902v-97.9902h-97.9902zM0 315.101v97.9902h97.9902v-97.9902h-97.9902zM0 -29.0908v97.9902h97.9902v-97.9902h-97.9902zM164.134 143.005v97.9902h347.866v-97.9902h-347.866zM164.134 315.101v97.9902h347.866v-97.9902h-347.866z
M164.134 -29.0908v97.9902h347.866v-97.9902h-347.866z" />
    <glyph glyph-name="uniF11A" unicode="&#xf11a;" 
d="M166.504 244.312v114.189c0 49.4297 40.0703 89.498 89.4951 89.498c49.4268 0 89.4971 -40.0684 89.4971 -89.498v-114.189c0 -49.4248 -40.0703 -89.4971 -89.4971 -89.4971c-49.4248 0.00195312 -89.4951 40.0723 -89.4951 89.4971zM65.0156 313.397h67.6582v-69.085
c0 -68.002 55.3252 -123.325 123.325 -123.325c68.0059 0 123.327 55.3232 123.327 123.325v69.085h67.6582v-69.085c0 -93.7656 -67.9238 -171.968 -157.155 -187.981v-52.6729h61.9316v-67.6582h-191.521v67.6582h61.9316v52.6729
c-89.2295 16.0137 -157.155 94.2158 -157.155 187.981v69.085z" />
    <glyph glyph-name="uniF103" unicode="&#xf103;" 
d="M427.98 395.445l84.0195 -84.0225l-322.868 -322.868l-189.132 189.128l84.0215 84.0244l105.11 -105.11z" />
    <glyph glyph-name="uniF125" unicode="&#xf125;" 
d="M380.643 288.938c0 -39.1182 -18.1309 -74.0684 -46.4082 -96.9355c28.2803 -22.8711 46.4082 -57.8184 46.4082 -96.9395v-88.8721h39.0859v-70.1904h-327.454v70.1904h39.0869v88.8721c0 39.1211 18.1289 74.0684 46.4111 96.9395
c-28.2822 22.8672 -46.4111 57.8193 -46.4111 96.9355v88.8721h-39.0869v70.1904h327.454v-70.1904h-39.0859v-88.8721zM325.229 95.0625c0 38.1768 -31.0557 69.2295 -69.2295 69.2295c-38.1719 0 -69.2266 -31.0527 -69.2266 -69.2295v-88.8721h138.456v88.8721z
M186.773 288.938c0 -38.1719 31.0547 -69.2295 69.2266 -69.2295c38.1738 0 69.2295 31.0576 69.2295 69.2295v88.8721h-138.456v-88.8721z" />
    <glyph glyph-name="uniF11E" unicode="&#xf11e;" 
d="M0 -63.998l14.2959 138.098l123.804 -123.808zM307.24 367.042l123.804 -123.804l-269.141 -269.141l-123.806 123.803zM494.999 307.196l-40.3662 -40.3662l-123.808 123.801l40.3682 40.3711c22.665 22.6621 59.415 22.667 82.0781 0l41.7275 -41.7285
c22.6729 -22.6699 22.6631 -59.415 0 -82.0771z" />
    <glyph glyph-name="uniF102" unicode="&#xf102;" 
d="M512 316.298v-335.198h-512v335.198h512zM255.999 40.9092c59.5293 0 107.793 48.2588 107.793 107.79c0 59.5283 -48.2637 107.789 -107.793 107.789c-59.5303 0 -107.788 -48.2607 -107.788 -107.789c0 -59.5312 48.2607 -107.79 107.788 -107.79zM195.452 402.9
h121.096l39.833 -64.2246h-200.758zM320.675 148.699c0 -35.7178 -28.9561 -64.6748 -64.6758 -64.6748c-35.7158 0 -64.6709 28.957 -64.6709 64.6748c0 35.7188 28.9551 64.6738 64.6709 64.6738c35.7197 -0.00195312 64.6758 -28.9551 64.6758 -64.6738z" />
    <glyph glyph-name="uniF12B" unicode="&#xf12b;" 
d="M430.075 -64l-206.29 149.038v-36.6465h-182.608v287.217h182.608v-36.6465l206.29 149.038h40.748v-512h-40.748z" />
    <glyph glyph-name="uniF120" unicode="&#xf120;" 
d="M256 448c115.75 0 209.576 -93.8262 209.576 -209.575c0 -115.75 -209.576 -302.425 -209.576 -302.425s-209.576 186.675 -209.576 302.425c0 115.749 93.8262 209.575 209.576 209.575zM256 143.542c55.668 0 100.811 45.1426 100.811 100.81
c0 55.668 -45.1426 100.811 -100.811 100.811c-55.6631 0 -100.811 -45.1426 -100.811 -100.811c0 -55.667 45.1475 -100.81 100.811 -100.81z" />
    <glyph glyph-name="uniF117" unicode="&#xf117;" 
d="M0 24.5332v334.934h512v-334.934h-512zM57.0684 289.365v-52.1953l198.932 -69.1367l198.934 69.1367v52.1953l-198.934 -69.1328z" />
    <glyph glyph-name="uniF10C" unicode="&#xf10c;" 
d="M40.7969 384.586h203.984l22.0664 -52.8018h245.152v-66.9131h-471.203v119.715zM512 -0.585938h-471.203l-40.7969 224.662h512v-224.662z" />
    <glyph glyph-name="uniF107" unicode="&#xf107;" 
d="M390.946 448l121.054 -121.056v-390.944h-512v512h390.946zM424.264 23.7363v257.581h-78.9434v78.9463h-257.584v-336.527h336.527zM130.994 88.3281v71.7734h250.012v-71.7734h-250.012z" />
    <glyph glyph-name="uniF122" unicode="&#xf122;" 
d="M256 448c141.388 0 256 -114.617 256 -256c0 -141.388 -114.612 -256 -256 -256c-141.383 0 -256 114.612 -256 256c0 141.383 114.617 256 256 256zM202.783 53.6084l166.404 138.392l-166.399 138.387z" />
    <glyph glyph-name="uniF12A" unicode="&#xf12a;" 
d="M105.332 -64v512h301.334v-512h-301.334zM271.197 -20.4307v22.4697h-30.8086v-22.4697l15.4043 -11.5518zM211.042 407.064v-17.6172h89.9141v17.6172h-89.9141zM145.428 352.795v-321.592h221.14v321.592h-221.14z" />
    <glyph glyph-name="uniF12E" unicode="&#xf12e;" 
d="M366.453 203.775c-29.5469 0 -56.7012 -10.1436 -78.2549 -27.0977v-140.25c0 -49.7139 -40.4424 -90.1562 -90.1562 -90.1562s-90.1602 40.4424 -90.1602 90.1562h64.3975c0 -14.2021 11.5557 -25.7578 25.7627 -25.7578c14.2031 0 25.7578 11.5557 25.7578 25.7578
v140.254c-21.5518 16.9502 -48.7061 27.0938 -78.251 27.0938c-38.6357 0 -73.2119 -17.3008 -96.4717 -44.5488h-49.0771c0 134.051 103.021 244.005 234.199 255.066v1.63477c0 12.0391 9.76172 21.8008 21.7998 21.8008s21.7998 -9.76172 21.7998 -21.8008v-1.63477
c131.186 -11.0615 234.203 -121.018 234.203 -255.066h-49.0762c-23.2607 27.248 -57.8369 44.5488 -96.4727 44.5488z" />
    <glyph glyph-name="uniF11C" unicode="&#xf11c;" 
d="M506.787 448v-390.554h-0.0439453c0.00976562 -0.545898 0.0439453 -1.08203 0.0439453 -1.63086c0 -49.1934 -39.8799 -89.0713 -89.0654 -89.0713c-49.1963 0 -89.0713 39.8779 -89.0713 89.0713c0 49.1904 39.875 89.0684 89.0713 89.0684
c1.65527 0 3.30371 -0.0537109 4.94141 -0.143555v172.049l-239.313 -43.1104v-246.977h-0.0439453c0.00976562 -0.543945 0.0439453 -1.08496 0.0439453 -1.63086c0 -49.1934 -39.875 -89.0713 -89.0664 -89.0713c-49.1953 0 -89.0703 39.8779 -89.0703 89.0713
c0 49.1885 39.875 89.0684 89.0703 89.0684c1.6582 0 3.30371 -0.0537109 4.94238 -0.144531v239.271v21.3184z" />
    <glyph glyph-name="uniF126" unicode="&#xf126;" 
d="M489.514 79.2295c29.9824 -29.9688 29.9785 -78.5654 0 -108.537l-12.2021 -12.21c-29.9688 -29.9717 -78.5742 -29.9717 -108.543 -0.00292969l-135.677 135.677l120.754 120.75zM294.618 316.936l53.8174 -53.8135l-163.562 -163.561l-53.8135 53.8145l60.3828 60.3818
l-103.256 103.254l-28.002 20.8555l-60.1855 81.9199l28.2109 28.2129l81.916 -60.1904l20.8613 -28.0049l103.249 -103.248z" />
    <glyph glyph-name="uniF10B" unicode="&#xf10b;" 
d="M258.463 157.166l5.02539 24.7344h-150.815v266.1h218.071l-5.40918 -24.7344h176.42l-61.8447 -266.1h-181.447zM10.248 -64v512h64.9336v-512h-64.9336z" />
    <glyph glyph-name="uniF12F" unicode="&#xf12f;" 
d="M374.518 175.793c24.6826 -25.207 39.9209 -59.7012 39.9189 -97.7705v-142.022h-316.875v142.022c0 38.0674 15.2432 72.5586 39.9297 97.7666c31.1465 -28.8682 72.791 -46.5605 118.509 -46.5605c45.7217 0 87.3662 17.6943 118.518 46.5645zM256 171.526
c-73.0283 0 -132.232 59.2041 -132.232 132.239c0 73.0322 14.0781 144.234 132.232 144.234s132.232 -71.2021 132.232 -144.234c0 -73.0352 -59.2002 -132.239 -132.232 -132.239z" />
    <glyph glyph-name="uniF113" unicode="&#xf113;" 
d="M505.665 441.662l6.33496 -92.0322l-48.7334 -48.7334l-30.708 30.7002c-7.24609 7.24902 -18.9971 7.24512 -26.2422 0c-7.24805 -7.24609 -7.25 -18.9941 0 -26.2422l30.7109 -30.7021l-43.916 -43.916l-30.7021 30.7139
c-7.24512 7.24707 -18.9941 7.24707 -26.2432 -0.00292969c-7.24609 -7.24316 -7.24805 -18.9941 0 -26.2393l30.7031 -30.7109l-43.9971 -44c21.8613 -59.1367 9.08398 -128.187 -38.4229 -175.698c-65.0654 -65.0693 -170.564 -65.0664 -235.647 0
c-65.0693 65.084 -65.0693 170.583 0 235.65c47.5137 47.502 116.561 60.2793 175.7 38.4229l189.133 189.128zM204.418 10.2764c11.5342 11.5322 11.5342 30.2354 0.00390625 41.7676l-88.375 88.374c-11.5332 11.5322 -30.2354 11.5322 -41.7705 0
c-11.5322 -11.5303 -11.5322 -30.2354 0 -41.7676l88.3779 -88.374c11.5283 -11.5352 30.2334 -11.5352 41.7637 0z" />
    <glyph glyph-name="uniF106" unicode="&#xf106;" 
d="M18.2363 448h123.818v-288.752h-123.818v288.752zM493.764 189.65c-17.0928 -17.0947 -34.1973 -34.1924 -51.293 -51.2852h-98.5557l23.4844 -59.6836l6.66016 -16.9258l-0.614258 -4.87695l-14.4219 -115.339l-71.0537 -5.54004l-26.0713 89.9268l-69.4219 112.591
v309.482h256.525z" />
    <glyph glyph-name="uniF127" unicode="&#xf127;" 
d="M461.695 397.654c67.0205 -67.0332 67.0166 -176.08 0.00195312 -243.101c-32.4727 -32.4678 -75.6377 -50.3545 -121.556 -50.3545c-31.2314 0.00488281 -61.1787 8.29492 -87.3652 23.8086l-15.5029 -15.5049l7.96973 -7.97266l-168.527 -168.53l-76.6748 76.6748
l168.53 168.528l7.96777 -7.97266l15.501 15.5049c-15.5049 26.1826 -23.7998 56.1299 -23.7998 87.3652c0 45.9141 17.8818 89.0811 50.3496 121.554c32.4658 32.4639 75.6377 50.3457 121.552 50.3457c45.918 0 89.0811 -17.8779 121.554 -50.3457zM407.671 208.577
c37.2305 37.2334 37.2305 97.8164 0 135.056c-18.0361 18.0322 -42.0166 27.9629 -67.5273 27.9629s-49.4912 -9.93066 -67.5312 -27.9668c-18.0391 -18.0371 -27.9697 -42.0215 -27.9697 -67.5283s9.93457 -49.4863 27.9736 -67.5186
c18.041 -18.041 42.0254 -27.9805 67.5273 -27.9805c25.5068 0 49.4912 9.93555 67.5273 27.9756z" />
    <glyph glyph-name="uniF115" unicode="&#xf115;" 
d="M18.2363 224.75h123.82v-288.75h-123.82v288.75zM493.764 194.349l-44.7617 -258.349h-256.522v309.482l69.417 112.591l26.0713 89.9268l71.0557 -5.54004l14.4248 -115.344l0.613281 -4.87207l-6.66016 -16.9258l-23.4834 -59.6836h98.5557
c17.0947 -17.0977 34.1973 -34.1924 51.29 -51.2861z" />
    <glyph glyph-name="uniF128" unicode="&#xf128;" 
d="M442.731 288.965c5.55078 -10.6611 10.2119 -21.8604 13.8867 -33.4961h55.377v-126.942h-55.377c-3.67969 -11.6309 -8.34082 -22.8301 -13.8916 -33.4961l39.1709 -39.1709l-89.7588 -89.7598l-39.1719 39.1719c-10.6631 -5.55176 -21.8574 -10.2129 -33.4961 -13.8916
v-55.3779h-126.941v55.3779c-11.6357 3.67871 -22.833 8.33984 -33.4961 13.8916l-39.1719 -39.1719l-89.7637 89.7598l39.1709 39.1709c-5.54688 10.6641 -10.2119 21.8633 -13.8867 33.4961h-55.3818v126.942h55.3848c3.67383 11.6357 8.33984 22.835 13.8887 33.501
l-39.1738 39.1709l89.7617 89.7598l39.1719 -39.1689c10.6611 5.54688 21.8604 10.2119 33.498 13.8867v55.3818h126.944v-55.3848c11.6357 -3.67383 22.8301 -8.33984 33.4961 -13.8867l39.1719 39.1719l89.7588 -89.7646zM255.999 102.459
c49.4541 0 89.5439 40.0879 89.542 89.542c0 49.4541 -40.0879 89.542 -89.542 89.542s-89.542 -40.0898 -89.542 -89.542c0 -49.4541 40.0898 -89.542 89.542 -89.542z" />
    <glyph glyph-name="uniF11B" unicode="&#xf11b;" 
d="M375.962 72.0381h-146.375v70.6055h75.7695v75.7695h70.6055v-146.375zM113.087 142.644v-70.6055h-113.087v375.962h375.962v-113.087h-70.6055v42.4834h-234.753v-234.753h42.4834zM136.033 311.967h375.965v-375.965h-375.965v375.965zM206.642 6.60352h234.755
v234.755h-234.755v-234.755z" />
    <glyph glyph-name="uniF109" unicode="&#xf109;" 
d="M255.998 448c0 0 204.152 -195.105 204.152 -307.853c0 -112.746 -91.4033 -204.147 -204.152 -204.147c-112.747 0 -204.15 91.4014 -204.15 204.147c0 112.747 204.15 307.853 204.15 307.853zM313.469 23.1865
c-5.34082 -0.555664 -10.7588 -0.842773 -16.2441 -0.84375c-86.1934 0 -156.073 69.877 -156.073 156.078c0 5.48242 0.283203 10.9014 0.839844 16.2393c-13.0479 -19.6006 -20.665 -43.1309 -20.665 -68.4385c0 -68.3213 55.3828 -123.699 123.699 -123.699
c25.3125 0 48.8379 7.61328 68.4434 20.6641z" />
    <glyph glyph-name="uniF131" unicode="&#xf131;" 
d="M0 31.3232l160.678 160.678l-160.678 160.676l95.3232 95.3232l160.678 -160.678l160.676 160.678l95.3232 -95.3232l-160.678 -160.678l160.678 -160.676l-95.3232 -95.3232l-160.678 160.678l-160.678 -160.678z" />
    <glyph glyph-name="uniF123" unicode="&#xf123;" 
d="M255.999 -64c-125.79 0 -228.129 102.338 -228.129 228.129c0 49.1094 15.375 95.9043 44.4609 135.328l66.4531 -49.0283c-18.5332 -25.1211 -28.3301 -54.9639 -28.3301 -86.2998c0 -80.2539 65.293 -145.548 145.547 -145.548s145.548 65.292 145.548 145.548
c0 74.71 -56.5898 136.422 -129.15 144.6v-54.7949l-143.396 97.0342l143.396 97.0322v-56.3369c118.165 -8.43652 211.729 -107.258 211.729 -227.534c0 -125.791 -102.339 -228.129 -228.129 -228.129z" />
    <glyph glyph-name="uniF12D" unicode="&#xf12d;" 
d="M211.665 448l300.046 -300.05l-211.95 -211.95l-299.472 299.465v212.535h211.376zM136.099 311.612c15.5576 15.5537 15.5576 40.7842 0 56.3379c-15.5557 15.5576 -40.7861 15.5596 -56.3398 0c-15.5605 -15.5537 -15.5586 -40.7842 0 -56.3379
c15.5557 -15.5586 40.7842 -15.5586 56.3398 0z" />
    <glyph glyph-name="uniF12C" unicode="&#xf12c;" 
d="M256 43.3135c-82.1162 0 -148.685 66.5703 -148.685 148.687s66.5684 148.687 148.685 148.687c82.1201 0 148.691 -66.5703 148.691 -148.687s-66.5713 -148.687 -148.691 -148.687zM435.146 149.333v85.334l76.8535 -42.667zM76.8535 234.667v-85.334l-76.8535 42.667z
M256 -64l-42.667 76.8535h85.334zM256 448l42.667 -76.8535h-85.334zM99.1592 95.4922l60.3369 -60.3418l-84.5137 -24.1699zM352.508 348.849l84.5117 24.167l-24.1748 -84.5078zM74.9824 373.018l84.5117 -24.1689l-60.3369 -60.3408zM352.508 35.1514l60.3369 60.3408
l24.1748 -84.5117z" />
    <glyph glyph-name="uniF100" unicode="&#xf100;" 
d="M232.586 392.927h46.8281h232.588v-369.951h-200.523l-21.6406 -31.9023h-67.6738l-21.6377 31.9023h-200.526v369.951h232.586zM232.586 69.8037l0.00195312 276.293h-185.758v-276.293h185.756zM465.173 69.8037v276.293h-185.759v-276.293h185.759zM191.27 267.07
h-103.612v35.1211h103.609zM191.27 196.828h-103.612v35.1211h103.609zM191.27 126.586h-103.612v35.1211h103.609zM424.343 267.07h-103.609v35.1211h103.609v-35.1211zM424.343 196.828h-103.609v35.1211h103.609v-35.1211zM424.343 126.586h-103.609v35.1211h103.609
v-35.1211z" />
<glyph glyph-name="uniF13B" unicode="&#xf13b;" 
d="M448 336h64v-288c0 -63.0078 -48 -64 -48 -64h-400c-64 0 -64 64 -64 64v352h448v-64zM64 16h362.816c-6.27246 7.05566 -10.8164 17.2637 -10.8164 32v320h-384v-320s0 -32 32 -32zM64 272v32h320v-32h-320zM240 80v32h112v-32h-112zM240 144v32h144v-32h-144zM240 208
v32h144v-32h-144zM64 80v160h144v-160h-144z" />
    <glyph glyph-name="uniF137" unicode="&#xf137;" 
d="M509.734 381.986c1.40137 -1.61621 2.31641 -3.66406 2.26172 -5.81934c-3.44922 -46.1768 -21.2295 -90.0361 -50.4326 -125.921c-30.7129 -37.7178 -73.3877 -65.0889 -120.264 -77.6436c2.15527 -8.08203 3.125 -20.8525 -9.96875 -26.1875
c-2.85547 -1.18457 -5.71094 -2.42383 -8.45898 -3.77148c-7.65039 -3.7168 -17.835 -9.10547 -20.6367 -17.8877c-1.34668 -4.14941 -0.21582 -8.35156 2.10156 -11.9619c1.61621 -2.47852 3.87988 -4.20215 5.81934 -6.41211
c1.88574 -2.15527 1.72363 -4.58008 1.23926 -7.27344c-0.0537109 -0.430664 -17.8887 -100.704 -17.8887 -100.704h16.9727c3.34082 0 8.40625 -1.29395 11.3154 -2.91016c8.13574 -4.47168 23.7617 -12.9854 31.79 -17.4033
c3.125 -1.72461 5.11816 -5.01074 5.11816 -8.56738l0.0546875 -19.3975c0 -3.34082 -2.69434 -6.03418 -6.03516 -6.03418h-193.435c-3.34082 0 -6.03418 2.69336 -6.03418 6.03418v19.1826c0 3.28711 2.37109 7.27344 5.28027 8.89062l31.5752 17.2959
c2.90918 1.61621 8.02734 2.90918 11.3145 2.90918h17.0811l-17.8887 100.704c-0.863281 3.66309 0 5.98145 2.69434 8.56738c7.1123 6.78809 9.64355 15.5176 2.69336 23.3838c-6.51953 7.38184 -16.3799 11.6924 -25.3242 15.3564
c-13.1465 5.33496 -12.1777 18.1045 -9.96777 26.1865c-46.877 12.501 -89.5508 39.9268 -120.264 77.6436c-29.2041 35.8848 -46.9844 79.7451 -50.4336 125.921c-0.161133 2.47852 0.970703 4.74219 2.74805 6.41211c1.45508 1.77832 3.66406 2.96387 6.68164 2.96387
h67.7832c2.69336 17.8887 6.41211 30.8203 7.97461 35.7236c-1.72461 1.83105 -3.44922 3.71777 -5.17285 5.5498c-2.74805 2.90918 -2.91016 7.48926 0 10.3984c0.916016 0.916016 2.04688 1.5625 3.28711 1.88574c0.915039 0.539062 2.04688 0.808594 3.39453 0.808594
h338.43c1.29297 0 2.4248 -0.323242 3.39453 -0.808594c1.23926 -0.376953 2.37109 -0.969727 3.28613 -1.88574c2.91016 -2.90918 2.74902 -7.48926 0 -10.3984c-1.72363 -1.83203 -3.44727 -3.66406 -5.17188 -5.5498c1.5625 -4.90332 5.33398 -17.8887 7.97461 -35.7236
h67.998c3.34082 0 5.71094 -1.45508 7.1123 -3.55664zM109.233 224.76c8.08203 -5.3877 16.541 -10.1836 25.3242 -14.4395c-55.5518 47.1465 -64.7119 110.672 -62.125 157.172h-55.0674c0.269531 -1.50879 0.485352 -3.01758 0.754883 -4.52539
c1.18555 -6.78906 2.80176 -13.5244 4.63379 -20.1523c1.83203 -6.57324 4.04102 -13.0391 6.51953 -19.4512c0.484375 -1.34668 1.02344 -2.63965 1.5625 -3.93359c0.107422 -0.161133 0.592773 -1.40039 0.646484 -1.50879
c0.323242 -0.753906 0.646484 -1.50781 0.969727 -2.2627c1.45508 -3.23242 2.96387 -6.41211 4.58008 -9.59082c6.03516 -11.9619 13.2549 -23.3311 21.3906 -33.999c0.21582 -0.269531 0.862305 -1.07812 0.916016 -1.18555
c0.485352 -0.592773 0.969727 -1.23926 1.50879 -1.88574c1.02441 -1.29297 2.04785 -2.53223 3.125 -3.77148c2.26367 -2.69434 4.63379 -5.33496 7.05859 -7.9209c4.6875 -5.01074 9.59082 -9.75293 14.6562 -14.332c8.35156 -7.49023 14.1172 -11.9619 23.5459 -18.2129z
M339.738 334.895c3.50293 2.53223 2.80176 4.5791 -1.29297 4.52539h-60.9941l-18.8584 57.9766c-1.34668 4.09473 -3.44824 4.09473 -4.79492 0l-18.8584 -57.9766h-60.9941c-4.31055 0 -4.95703 -2.04688 -1.50879 -4.58008l49.3018 -35.8311l-18.8584 -57.9766
c-1.34766 -4.04102 0.430664 -5.33398 3.87891 -2.80176l49.3555 35.8848l49.3018 -35.8311c3.44824 -2.53125 5.22656 -1.29297 3.87988 2.80176l-18.8584 57.9766zM489.044 362.967c0.21582 1.50781 0.485352 3.0166 0.700195 4.52539h-55.0664
c2.64062 -46.5 -6.51953 -110.025 -62.0176 -157.227c8.72852 4.31055 17.1885 9.10645 25.2705 14.4941c9.37402 6.30469 15.1943 10.7236 23.5459 18.2129c5.11816 4.5791 10.0215 9.32129 14.6553 14.332c2.4248 2.58594 4.7959 5.22656 7.05957 7.9209
c1.07715 1.23926 2.10059 2.47852 3.12402 3.77148c0.485352 0.592773 1.02441 1.23926 1.50977 1.88574c0.0527344 0.0537109 0.699219 0.916016 0.915039 1.18555c8.13574 10.668 15.3564 22.0371 21.3916 33.999c1.61621 3.17871 3.125 6.3584 4.58008 9.59082
c0.323242 0.754883 0.645508 1.50879 0.969727 2.2627c0.0527344 0.108398 0.591797 1.34766 0.646484 1.50879c0.539062 1.29395 1.07812 2.64062 1.56152 3.93359c2.47949 6.3584 4.68848 12.8779 6.52051 19.4512c1.88574 6.62793 3.44824 13.3633 4.63379 20.1523z" />
    <glyph glyph-name="uniF139" unicode="&#xf139;" 
d="M184.161 376.701l-25.8477 71.292h195.382l-25.8506 -71.292h-143.684zM77.458 376.701l71.5811 71.2988l25.8486 -71.2881l65.4834 -180.599c-27.0176 -3.23438 -51.5762 -14.4482 -71.2803 -31.2559zM362.981 447.993l71.5605 -71.293l-91.3516 -211.238
c-19.8086 16.6602 -44.4492 27.7266 -71.5039 30.7822l65.4473 180.457zM256.474 -64c-69.7012 0 -126.217 56.5088 -126.217 126.203c0 34.1846 13.6455 65.1484 35.7148 87.873c1.08203 1.12207 2.21094 2.19531 3.33594 3.26855
c1.10547 1.07324 2.25684 2.08887 3.41309 3.10938c19.2314 17.1104 43.6426 28.5146 70.6768 31.3027c1.49414 0.141602 3.03711 0.141602 4.54395 0.245117c1.52148 0.09375 3.03809 0.191406 4.56738 0.222656c1.33496 0.0527344 2.63281 0.205078 3.97559 0.205078
c1.03125 0 2.02539 -0.138672 3.04297 -0.152344c1.53027 -0.0351562 3.03711 -0.146484 4.55469 -0.230469c1.51465 -0.0947266 3.05469 -0.0947266 4.55566 -0.232422c27.0713 -2.57812 51.5732 -13.7822 70.9336 -30.7373
c1.13867 -1.01562 2.27832 -2.05371 3.40527 -3.10742c1.12207 -1.06543 2.28418 -2.08984 3.36621 -3.17969c22.4639 -22.7969 36.3535 -54.0469 36.3535 -88.5869c0 -69.6934 -56.5049 -126.203 -126.223 -126.203z" />
    <glyph glyph-name="uniF136" unicode="&#xf136;" 
d="M213.793 403.139c0 24.7764 20.085 44.8613 44.8613 44.8613s44.8613 -20.085 44.8613 -44.8613s-20.085 -44.8623 -44.8613 -44.8623s-44.8613 20.0859 -44.8613 44.8623zM201.772 12.2559c12.2539 -6.9541 20.623 -19.9688 20.624 -35.0771
c0 -22.3467 -18.1123 -40.4756 -40.4678 -40.4756s-40.4756 18.1289 -40.4756 40.4756c0 13.5918 6.75293 25.5527 17.0312 32.8936c-0.660156 2.12598 -1.12109 4.34473 -1.12109 6.67969v72.1885h44.8613v-72.1885c0 -1.53223 -0.150391 -3.04004 -0.452148 -4.49609z
M272.957 -41.5693v130.51h44.8604v-130.51c0 -12.3867 -10.043 -22.4307 -22.4297 -22.4307s-22.4307 10.0518 -22.4307 22.4307zM203.814 273.993l-5.38086 -9.6748l-32.7432 14.9648l5.38281 9.68457zM361.183 272.345l-32.6514 -14.9229l-4.99609 10.2773
l32.6504 14.9229zM352.595 117.715c-9.90918 0 -17.9541 8.02539 -17.9443 17.9521v109.149l-2.55176 5.25586l32.6494 14.9238l3.99316 -8.20996c1.1875 -2.45312 1.80664 -5.13086 1.80664 -7.84277v-113.274c0 -9.92773 -8.03516 -17.9541 -17.9531 -17.9541z
M294.937 147.485c0.954102 1.70801 1.76562 3.28027 2.71191 5.23926h0.193359c-0.0927734 -1.8584 -0.193359 -3.61523 -0.193359 -5.38965v-8.42773h-8.42871v0.0986328zM317.817 180.713v-0.000976562h-0.00683594v-75.4697h-44.8623v41.8984h-37.3623l-33.3691 -39.8486
v-2.0498h-44.8623v10.2021c0 5.27441 1.85059 10.3789 5.23145 14.4219l8.05176 9.60938c-9.44141 0.536133 -16.957 8.26953 -16.957 17.8447v95.7236c0 3.05566 0.77832 6.05957 2.26758 8.72949l5.75879 10.3447l32.7422 -14.9814l-4.87109 -8.75488v-86.29
l15.5928 18.6211h112.646zM307.182 134.471v4.44531h-4.01074v18.6729h-6.90527l-12.6709 -19.3027v-3.81543h14.0527v-7.85156h5.52344v7.85156h4.01074zM317.817 279.467h0.000976562v-82.4414h-105.433v92.3848l-4.59473 -8.26074l-32.7432 14.9648l21.6523 38.9365
c3.28125 5.88379 9.39062 9.12305 15.6846 9.13965v0.368164h105.433v-0.518555c5.59277 -0.90332 10.6807 -4.38574 13.3428 -9.86816l21.46 -44.2002l-32.6504 -14.9326zM270.914 286.757c13.5176 0 24.4736 3.19824 24.4736 7.13965
c0 3.95117 -10.957 7.14844 -24.4736 7.14844h-18.4717c-13.5166 0 -24.4727 -3.19727 -24.4727 -7.14844c0 -3.94141 10.9561 -7.13965 24.4727 -7.13965h18.4717z" />
    <glyph glyph-name="uniF132" unicode="&#xf132;" 
d="M224.341 373.597h54.7217v-20.668h18.5713v-11.7529h-91.1592v11.7529h17.8662v20.668zM270.151 357.384v7.30078h-36.8975v-7.30078h36.8975zM251.698 259.423c-32.1875 0 -58.6992 -17.6807 -61.6035 -40.1758h-133.955l32.4648 108.077
c4.25098 14.1455 19.6582 25.6025 34.4229 25.6025h32.2246l-4.61719 -52.3809h68.377c3.4082 -4.20312 12.6367 -12.6885 32.0645 -12.6885h0.670898c19.4941 0.205078 28.3086 8.39453 31.5996 12.6885h66.6084l-4.62207 52.3809h32.9238
c14.7676 0 30.5186 -11.3525 35.1904 -25.3594l36.0986 -108.32h-136.247c-2.90723 22.5059 -29.4043 40.1758 -61.6006 40.1758zM269.36 300.546c-3.89453 -1.98242 -9.50781 -3.69824 -17.7061 -3.77734c-8.74902 -0.204102 -14.7021 1.61426 -18.792 3.77734h36.498z
M306.546 352.929h34.2949l-4.42871 -0.393555l3.81152 -43.0781h-179.859l3.79883 43.0781l-4.4375 0.393555h37.8291v-20.666h108.991v20.666zM251.698 179.781c-26.7705 0 -48.9043 13.332 -52.4326 30.5557h104.87
c-3.53418 -17.2236 -25.6729 -30.5557 -52.4375 -30.5557zM251.698 250.512c27.1201 0 49.5381 -13.6885 52.5918 -31.2646h-105.186c3.06445 17.5762 25.4688 31.2646 52.5938 31.2646zM219.629 10.4131v9.28613h70.0254v-9.28613h-70.0254zM452.513 210.337
l58.1777 -174.574c4.66602 -14.0117 -3.51562 -25.3594 -18.2744 -25.3594h-105.763l4.41309 0.662109l-11.8535 78.5039h-79.499c-4.21973 4.07422 -17.6045 14.499 -45.083 14.499c-25.9961 0 -40.9277 -10.7559 -45.3584 -14.499h-80.2363l-10.373 -78.5742
l4.41602 -0.583008h-102.941c-14.7695 0 -23.292 11.4619 -19.0469 25.5938l52.377 174.331h136.715c3.36719 -22.1562 29.6572 -39.4648 61.5137 -39.4648s58.1553 17.3066 61.5137 39.4648h139.303zM327.118 10.4131h-28.5518v18.1963h-87.8486v-18.1963h-22.5225
l3.53613 23.0264h130.069zM127.573 10.4131l9.27734 70.2471h234.704l10.5977 -70.2471h-50.4658l4.34277 1.00195l-7.13574 30.9375h-144.797l-4.81348 -31.2705l4.40332 -0.668945h-56.1133zM226.622 89.5693c6.69238 2.92578 15.9336 5.59863 28.0088 5.58789
c13.1611 0 22.4297 -2.67969 28.791 -5.58789h-56.7998z" />
    <glyph glyph-name="uniF133" unicode="&#xf133;" 
d="M446.855 291.298c1.19336 -5.81934 3.24023 -11.832 6.26855 -18.4004c5.69336 -12.4941 15.3096 -42.8555 16.0342 -106.585c0.0859375 -8.0166 -0.661133 -15.9268 -2.19629 -23.5596c-11.0654 -52.835 -43.9854 -96.6064 -90.5518 -121.021l-14.584 -7.63281
c-41.2988 -18.3359 -81.5752 -45.585 -84.5176 -56.9062c-0.0214844 -0.533203 -0.0429688 -1.06543 -0.106445 -1.62012c-0.724609 -11.0664 -9.95703 -19.5732 -21.2363 -19.5732c-11.6416 0 -21.0869 9.61523 -21.2998 21.1934
c-2.94238 11.3643 -43.1963 38.6133 -83.2383 56.2881l-15.8633 8.25098c-46.5654 24.4141 -79.4854 68.1855 -90.3379 120.104c-1.74902 8.5498 -2.49414 16.46 -2.40918 24.4551c0.724609 63.752 10.3398 94.1123 16.0117 106.564
c3.04785 6.60938 5.09473 12.6221 6.28906 18.4219c8.44336 40.7227 -16.0547 69.9121 -17.1211 71.1484c-6.63086 7.76074 -6.95117 19.2744 -0.576172 27.2695l39.9775 50.2549c4.43555 5.56543 11.1523 8.57129 18.4648 7.97461
c7.10059 -0.617188 13.4326 -4.71094 16.8867 -10.959c0.319336 -0.46875 14.627 -22.4717 61.2773 -22.4717c43.1982 0 51.5771 18.6133 51.918 19.4014c3.49609 8.27344 11.0439 13.7959 20.873 13.54c8.93457 -0.426758 16.8438 -5.86426 19.5088 -14.3926
c0.0644531 0 8.50781 -18.5488 51.6191 -18.5488c46.7793 0 61.1709 22.2588 61.2773 22.4717c3.4541 6.24707 9.78711 10.3408 16.8867 10.959c7.31445 0.59668 14.0303 -2.40918 18.4648 -7.97461l39.9775 -50.2549c6.43848 -8.10059 6.14062 -19.6367 -0.682617 -27.3975
c-0.959961 -1.1084 -25.458 -30.2979 -17.0146 -71zM255.987 85.5264c58.7822 0 106.606 47.8232 106.606 106.606s-47.8242 106.607 -106.606 106.607c-58.7832 0 -106.607 -47.8242 -106.607 -106.607s47.8242 -106.606 106.607 -106.606zM255.987 256.097
c35.2646 0 63.9639 -28.6982 63.9639 -63.9639c0 -35.2646 -28.6992 -63.9639 -63.9639 -63.9639c-35.2656 0 -63.9639 28.6992 -63.9639 63.9639c0 35.2656 28.6982 63.9639 63.9639 63.9639z" />
    <glyph glyph-name="uniF134" unicode="&#xf134;" 
d="M366.276 320.311c4.09473 1.3916 12.3447 4.19043 14.5479 3.37207c0.955078 -4.72168 -4.98828 -19.1729 -7.89551 -26.2393c-2.63281 -6.40234 -4.90625 -11.9307 -5.98242 -16.5938c-9.37695 -40.6465 -0.943359 -159.117 -0.263672 -168.398
c-0.27832 -25.3867 -30.8057 -49.0781 -74.4248 -57.7031c-11.8809 -2.34961 -22.6318 -8.1416 -31.0908 -16.7529l-5.16992 -5.26465l-5.1709 5.2666c-8.46094 8.61133 -19.2119 14.4043 -31.0889 16.751c-43.6211 8.625 -74.1465 32.3164 -74.4248 57.7031
c0.681641 9.28125 9.11328 127.752 -0.263672 168.398c-1.07617 4.66309 -3.34961 10.1914 -5.9834 16.5938c-2.9043 7.06641 -8.84863 21.5176 -7.89355 26.2393c2.20508 0.820312 10.4561 -1.98047 14.5488 -3.37012c7.22168 -2.45215 15.4082 -5.2334 23.8359 -5.2334
c31.4805 0 50.8105 14.4766 64.9248 25.0469c8.52832 6.3877 15.2666 11.4326 21.5176 11.4326s12.9902 -5.0459 21.5176 -11.4326c14.1143 -10.5703 33.4443 -25.0479 64.9268 -25.0479c8.4248 0 16.6104 2.78027 23.833 5.23242zM462.477 399.717
c15.1104 -14.4385 -12.9775 -61.3447 -17.6777 -81.71c-14.541 -63.0273 -2.45703 -180.464 0 -240.552c1.19629 -29.2471 -54.7412 -88.8027 -130.839 -106.263c-14.3857 -3.30176 -27.5752 -10.6436 -37.918 -21.1719l-9.37695 -9.54688
c-2.81152 -2.8623 -6.65527 -4.47363 -10.666 -4.47363s-7.85449 1.61133 -10.665 4.47363l-9.37695 9.54688c-10.3945 10.5801 -23.4629 17.8545 -37.9189 21.1719c-76.0977 17.4619 -132.035 77.0156 -130.839 106.263c2.45801 60.0869 14.542 177.522 0 240.552
c-4.69824 20.3652 -32.7861 67.2715 -17.6758 81.71c15.5107 14.8223 45.25 -8.66602 71.5303 -8.66602c74.5293 0 98.3281 56.9492 134.945 56.9492c36.6182 0 60.418 -56.9492 134.945 -56.9492c26.2822 0 56.0195 23.4883 71.5322 8.66602zM391.9 289.642
c7.18945 17.4814 15.3359 37.2949 3.44824 48.6572c-10.4551 9.99414 -24.4346 5.24512 -35.6641 1.43262c-5.99805 -2.03906 -12.2021 -4.14453 -17.2402 -4.14453c-24.6543 0 -39.5176 11.1338 -52.6338 20.9551c-10.6602 7.98438 -20.7295 15.5264 -33.8096 15.5264
s-23.1494 -7.54199 -33.8096 -15.5264c-13.1152 -9.82129 -27.9795 -20.9551 -52.6328 -20.9551c-5.04004 0 -11.2432 2.10742 -17.2412 4.14453c-11.2314 3.81055 -25.207 8.55762 -35.6641 -1.43262c-11.8877 -11.3623 -3.73926 -31.1758 3.4502 -48.6572
c2.09668 -5.10254 4.26758 -10.377 4.96387 -13.4033c8.86133 -38.4014 -0.141602 -161.439 -0.233398 -162.679c-0.0185547 -0.250977 -0.0292969 -0.505859 -0.0292969 -0.758789c0 -35.999 36.5527 -67.4121 90.957 -78.1689
c7.81348 -1.54492 14.8818 -5.34863 20.4355 -11.0039l5.6582 -5.75879c3.70508 -3.77051 8.85938 -5.93359 14.1455 -5.93359s10.4395 2.16309 14.1465 5.93359c0 0 0 0.00195312 0.00195312 0.00195312l5.65332 5.75488c5.55371 5.65332 12.6221 9.46094 20.4385 11.0059
c54.4033 10.7568 90.9561 42.1699 90.9561 78.1689c0 0.25293 -0.0107422 0.505859 -0.0292969 0.758789c-0.0917969 1.2373 -9.09668 124.275 -0.234375 162.679c0.697266 3.02637 2.86621 8.30371 4.9668 13.4033z" />
    <glyph glyph-name="uniF13A" unicode="&#xf13a;" 
d="M159.673 429.267c30.6748 12.4297 63.084 18.7334 96.334 18.7334c33.251 0 65.6523 -6.30371 96.3271 -18.7334c31.7793 -12.876 60.2617 -31.8076 84.6895 -56.2354c24.4287 -24.4287 43.3604 -52.9395 56.2363 -84.6895
c12.4297 -30.6758 18.7334 -63.0918 18.7334 -96.3418c0 -33.2432 -6.29688 -65.6592 -18.7334 -96.3203c-12.876 -31.7715 -31.793 -60.2607 -56.2363 -84.6895c-24.4277 -24.4424 -52.9385 -43.3604 -84.6895 -56.2354
c-30.6748 -12.4307 -63.0762 -18.7412 -96.3271 -18.7412c-33.25 0 -65.6592 6.29004 -96.334 18.7412c-31.7646 12.875 -60.2539 31.793 -84.6895 56.2354c-24.4355 24.4287 -43.3535 52.9316 -56.2354 84.6895c-12.4375 30.6611 -18.748 63.0771 -18.748 96.3203
c0 33.25 6.31055 65.666 18.748 96.3418c12.8818 31.75 31.793 60.2539 56.2354 84.6895c24.4355 24.4277 52.9316 43.3594 84.6895 56.2354zM63.9824 84.2334c0.94043 -0.594727 1.91016 -1.13184 2.88672 -1.62695l44.8027 70.25
c-0.0283203 0.126953 -0.0498047 0.205078 -0.0703125 0.34668c-6.28223 30.3994 -9.4375 61.2441 -9.28906 92.3154v1.45117l-57.7715 34.1836c-2.03711 -2.60352 -3.79883 -5.39746 -5.70215 -8.0791c-6.16113 -8.6875 -11.6094 -17.7568 -16.3984 -27.2012
c-10.1807 -44.4355 -7.57715 -91.248 7.78906 -134.487c10.0605 -10.499 21.4219 -19.4131 33.7529 -27.1523zM235.753 -34.5273c-0.792969 0.40332 -1.5498 0.856445 -2.29199 1.33008l-96.8438 17.2549c39.9492 -22.9219 85.1416 -33.4062 129.889 -31.4609
c-10.5342 3.49512 -20.7852 7.78906 -30.7529 12.876zM235.398 -17.0459c1.76953 2.04395 3.4668 4.10254 5.06543 6.24707c9.62207 12.875 19.0381 25.8926 28.3486 38.9805l-53.6543 92.7686c-1.19531 0.126953 -2.5957 0.332031 -4.27246 0.566406
c-28.6943 4.17383 -57.1914 9.50098 -85.1924 16.9922c-1.25195 0.333008 -2.35547 0.594727 -3.3457 0.842773l-44.7607 -70.1797c2.22852 -4.875 5.16406 -9.40918 7.7959 -14.0791c10.3359 -18.3584 22.3623 -35.5352 35.7334 -51.7715zM425.535 22.4727
c42.1211 42.1143 65.2549 96.1289 69.4014 151.317c-1.18848 -1.59863 -2.72363 -3.06348 -4.57031 -4.37207c-14.1211 -10.0957 -29.3311 -18.2383 -45.1006 -25.4189l-57.2471 -106.798c4.08203 -12.8262 6.97559 -25.9561 8.65234 -39.3555
c10.1094 7.31543 19.7656 15.5215 28.8643 24.627zM422.995 160.979c-11.5176 22.0293 -24.7686 42.9844 -38.7549 63.501l-114.204 -11.7295c-5.62402 -10.9307 -11.2559 -21.8682 -16.9863 -32.7344c-8.43945 -16.0166 -16.9502 -32.0264 -25.5391 -47.9727
l55.1816 -95.4141c30.3848 0.141602 60.5156 3.1123 90.4053 8.69434c0.318359 0.0419922 0.623047 0.113281 0.941406 0.183594l55.2949 103.147c-2.1084 4.16016 -4.20996 8.2627 -6.33887 12.3242zM399.826 283.325c3.07031 8.15723 5.64551 16.5127 8.28418 24.8457
l-76.6318 86.374c-10.5127 0.742188 -20.9053 0.410156 -31.2412 -0.169922c-16.8799 -0.976562 -33.7383 -2.91504 -50.5762 -4.62695c-2.17188 -0.233398 -4.32227 -0.707031 -6.45898 -1.27344l-30.9727 -93.25c5.32715 -5.33398 10.6689 -10.6543 15.9961 -15.9736
c-0.120117 -0.134766 -0.241211 -0.248047 -0.361328 -0.396484c13.2012 -14.8281 26.4238 -29.6143 39.5615 -44.4922c1.4502 -1.64844 2.8291 -3.37402 4.15918 -5.12891l111.255 11.4258c5.76562 14.1914 11.5664 28.3545 16.9863 42.666zM425.535 361.542
c-23.2471 23.2402 -50.1445 40.7285 -78.8389 52.4082c-0.113281 -3.70703 -0.389648 -7.38574 -0.913086 -11.0576l75.4287 -85.0146c2.61035 -0.898438 5.17871 -1.81152 7.68359 -2.84473c16.0947 -6.60742 31.4033 -14.7148 45.7227 -24.5693
c-11.5742 25.7861 -27.9443 49.9248 -49.083 71.0781zM179.227 418.414c0.169922 0.304688 0.354492 0.594727 0.53125 0.870117c-34.1211 -11.3828 -66.1689 -30.6328 -93.2852 -57.7422c-2.90137 -2.90039 -5.7168 -5.87207 -8.43359 -8.87207
c-4.15234 -7.2793 -7.95801 -14.7285 -11.2979 -22.4404c-4.33691 -10.0098 -8.10742 -20.2822 -11.9414 -30.498c-0.608398 -1.61328 -0.913086 -3.42383 -0.998047 -5.20703l57.0986 -33.7812c22.0586 14.4961 45.4756 26.5869 69.4941 37.5029
c5.8291 2.65234 11.8633 4.8457 17.7852 7.29395c0.141602 0.0634766 0.283203 0.105469 0.431641 0.148438l28.9346 87.1367c-14.7852 10.4072 -30.4697 19.1797 -47.7109 25.1357c-0.169922 0.0498047 -0.310547 0.234375 -0.608398 0.453125z" />
    <glyph glyph-name="uniF135" unicode="&#xf135;" 
d="M497.118 166.591c6.61328 -7.04199 5.11719 -11.7412 -4.54688 -11.7412h-33.6787s-7.31152 -146.604 -202.275 -218.371v-0.478516c-0.21582 0.0849609 -0.407227 0.161133 -0.616211 0.236328c-0.208008 -0.0751953 -0.400391 -0.151367 -0.610352 -0.236328v0.478516
c-194.964 71.7656 -202.277 218.371 -202.277 218.371h-33.6836c-9.66113 0 -11.1641 4.69922 -4.54297 11.7412c58.8447 62.5996 37.2041 185.731 26.7295 230.694c-2.19434 9.40039 2.12012 12.3955 11.0186 8.62402c75.2627 -31.9424 189.982 33.7959 202.755 41.3652
v0.725586s0.25293 -0.149414 0.609375 -0.365234c0.369141 0.21582 0.617188 0.365234 0.617188 0.365234v-0.725586c12.7734 -7.56152 127.49 -73.3076 202.754 -41.3652c8.90625 3.77246 13.2197 0.785156 11.0146 -8.62402
c-10.4648 -44.9717 -32.1182 -168.104 26.7334 -230.694zM258.068 62.1729c81.9971 0 148.708 66.6963 148.708 148.686c0 81.9971 -66.7109 148.708 -148.708 148.708c-0.492188 0 -0.96582 -0.0625 -1.45215 -0.0712891
c-0.416016 0 -0.808594 -0.0517578 -1.21777 -0.0605469c-80.7549 -1.44336 -146.029 -67.4697 -146.029 -148.566c0 -81.0957 65.2754 -147.124 146.029 -148.565c0.40918 -0.00878906 0.801758 -0.0585938 1.21777 -0.0585938
c0.486328 0 0.959961 -0.0712891 1.45215 -0.0712891zM256.634 250.704c22 0 39.8281 -17.8291 39.8281 -39.835c0 -22.0049 -17.8291 -39.834 -39.8281 -39.834h-0.0273438c-0.412109 0 -0.805664 0.107422 -1.2168 0.125
c-21.4111 0.665039 -38.5938 18.1318 -38.5938 39.708c0 21.5742 17.1836 39.0391 38.5938 39.7129c0.411133 0.00878906 0.794922 0.123047 1.2168 0.123047h0.0273438zM258.068 346.451c74.7578 0 135.583 -60.8066 135.583 -135.564
c0 -74.7539 -60.8252 -135.589 -135.583 -135.589c-0.492188 0 -0.96582 0.0673828 -1.45215 0.0761719c-0.416016 0 -0.808594 0.0537109 -1.21777 0.0634766c-73.5166 1.44238 -132.905 61.583 -132.905 135.439c0 73.8594 59.3887 133.998 132.905 135.442
c0.40918 0.00878906 0.801758 0.0605469 1.21777 0.0605469c0.486328 0 0.959961 0.0712891 1.45215 0.0712891zM347.243 150.896c10.3613 15.6094 16.8105 34.0371 17.8975 53.8848c-17.3691 -0.491211 -33.6709 10.4707 -39.1279 27.8701
c-5.45312 17.3877 1.64844 35.6709 16.1543 45.1885c-12.1846 15.5332 -28.4668 27.6748 -47.248 34.7695c-4.72559 -16.7285 -20.0703 -28.9941 -38.3018 -28.9941h-0.0292969c-0.411133 0 -0.803711 0.0976562 -1.21484 0.107422
c-17.6719 0.550781 -32.4336 12.5566 -37.0518 28.8867c-18.1719 -6.86426 -34.0332 -18.458 -46.082 -33.2861c14.3545 -9.77441 21.1309 -28.1836 15.3799 -45.4727c-5.75195 -17.3037 -22.2295 -27.9756 -39.5869 -27.1895
c0.767578 -19.9854 6.96191 -38.5928 17.1387 -54.415c13.7822 10.5576 33.3867 11.2275 47.9951 0.321289c14.6191 -10.9023 19.5928 -29.9014 13.3896 -46.127c9.1748 -2.64844 18.8428 -4.1084 28.835 -4.22949c0.402344 0 0.803711 -0.0351562 1.21777 -0.0351562
h0.0263672c9.87402 0 19.4453 1.34375 28.543 3.82812c-5.96289 16.3193 -0.714844 35.2559 14.0645 45.9336c14.7734 10.6699 34.3711 9.72266 48.001 -1.04102z" />
    <glyph glyph-name="uniF138" unicode="&#xf138;" 
d="M262.07 299.929c-14.1621 -13.7764 -36.8818 -13.4932 -50.6602 0.701172c-13.8447 14.1602 -13.5293 36.833 0.651367 50.6582c14.1611 13.8291 36.8301 13.5137 50.6592 -0.666992c13.8115 -14.1426 13.5459 -36.8633 -0.650391 -50.6924zM219.184 59.958
c14.1807 13.8271 36.8311 13.5439 50.6602 -0.650391c13.8281 -14.1445 13.5449 -36.8643 -0.618164 -50.6924c-14.1934 -13.7969 -36.916 -13.4961 -50.6924 0.697266c-13.8125 14.1641 -13.5107 36.8506 0.650391 50.6455zM278.234 190.168
c10.3086 -2.95215 16.2646 -13.6934 13.3125 -24.002c-2.93652 -10.2578 -13.6621 -16.2803 -24.0049 -13.3096l-61.9346 17.7305c-6.30664 1.80078 -11.2598 6.67188 -13.1953 12.9473l-4.98828 16.127l-32.7773 -31.9434l49.2412 -54.5469
c5.32227 -5.87109 7.25781 -14.0303 5.2041 -21.668l-20.5 -75.8164c-3.32031 -12.3105 -16.0117 -19.7676 -28.5576 -16.4141c-12.4131 3.35254 -19.7666 16.1621 -16.4141 28.5576l17.1816 63.5537l-11.7441 12.9951c-2.0166 -2.58398 -4.4209 -4.87207 -7.50586 -6.47168
l-107.526 -55.748c-11.5098 -5.92188 -25.5039 -1.38477 -31.4092 9.95801c-5.9209 11.4111 -1.45117 25.4893 9.97656 31.4111l88.4238 45.8535l-21.3691 50.8447c-4.76855 11.3438 2.7373 22.6182 11.043 29.7256l54.0771 52.6934l-25.3203 6.49121l-37.8311 -41.2686
c-3.83789 -4.1543 -9.06055 -6.28809 -14.3145 -6.28809c-4.70312 0 -9.40723 1.70117 -13.127 5.12012c-7.89062 7.23828 -8.40723 19.5322 -1.16699 27.4385l45.7051 49.8125c4.83887 5.28516 12.2109 7.48828 19.1338 5.68652l75.9482 -19.4834
c3.36914 -0.851562 10.4072 -4.42285 14.5264 -8.6748l9.19336 -9.42383c11.2949 -11.5928 11.4785 -29.6924 1.06836 -41.6855l7.82324 -25.3555zM510.866 209.504c3.60254 -10.0938 -1.66895 -21.2031 -11.7588 -24.791
c-9.99316 -3.61816 -21.1855 1.58496 -24.8047 11.7607l-18.7998 52.7285l-25.8223 3.86816l29.6074 -70.3232c4.67285 -10.3604 6.87305 -22.5205 -1.73242 -30.9121l-39.4854 -38.5322l63.6055 -76.666c8.22168 -9.90723 6.85352 -24.5869 -3.05469 -32.8125
c-9.97363 -8.22168 -24.6357 -6.77051 -32.8105 3.05566l-69.4268 83.6885l-39.2988 -79.1699c-5.77246 -11.5918 -19.7686 -16.1797 -31.2451 -10.5078c-11.5273 5.7207 -16.2305 19.7178 -10.5088 31.2266l50.4775 101.636c1.70117 3.4043 4.21875 6.35645 7.32422 8.5918
l32.1924 23.0039l-19.501 46.3232l-10.8242 -12.8955c-4.33594 -5.10352 -10.8438 -7.57324 -17.2158 -6.77344l-63.9707 7.75684c-10.6426 1.2832 -18.2148 10.9443 -16.9307 21.6035c1.2832 10.6406 10.7236 18.2139 21.6162 16.9297l53.5303 -6.48828l17.0674 20.2842
c-4.95605 15.1123 2.31641 31.7119 17.2129 37.998l12.1592 5.10547c5.4375 2.28418 13.21 2.85352 16.7471 2.33594l77.5498 -11.6602c7.07422 -1.06641 12.9941 -5.93848 15.3984 -12.6777zM383.073 316.678c-18.2334 -7.72363 -39.249 0.868164 -46.9561 19.082
c-7.67285 18.2656 0.917969 39.2842 19.167 46.9561c18.2295 7.69238 39.2324 -0.901367 46.9053 -19.1172c7.67383 -18.2646 -0.866211 -39.2666 -19.1162 -46.9209z" />
<glyph glyph-name="uniF13C" unicode="&#xf13c;" horiz-adv-x="512" 
d="M512 312.007v-240.014c0 -4.18848 -1.72461 -8.35254 -4.68652 -11.3145s-7.125 -4.68652 -11.3145 -4.68652h-224.013v-104.006c-0.0126953 -6.27539 -4.08301 -12.3545 -9.88184 -14.7539c-5.79688 -2.40039 -12.9756 -0.976562 -17.4189 3.4541l-240.014 240.014
c-2.95312 2.95996 -4.67188 7.11914 -4.67188 11.2998s1.71875 8.33789 4.67188 11.2998l240.014 240.014c4.44336 4.43066 11.6201 5.85449 17.4189 3.4541c5.79883 -2.39941 9.86914 -8.47852 9.88184 -14.7539v-104.006h224.013
c4.18945 0 8.35254 -1.72461 11.3145 -4.68652s4.68652 -7.12598 4.68652 -11.3145z" />
  <glyph glyph-name="uniF13D" unicode="&#xf13d;" horiz-adv-x="512" 
d="M173.854 196.34c17.8975 0 32.4062 -14.5078 32.4062 -32.4004c0 -17.8936 -14.5088 -32.4062 -32.4062 -32.4062c-17.8965 0 -32.4043 14.5127 -32.4043 32.4062c0 17.8926 14.5078 32.4004 32.4043 32.4004zM489.422 170.316l22.5781 -189.676l-157.543 36.3555
l-178.514 -33.998l-175.019 32.8291l21.3184 181.986l-22.2432 184.81l164.723 -69.5664l189.06 90.3037l157.612 -59.8125zM353.198 385.011l-9.15234 -93.1602l139.15 -35.1992l9.61133 75.749zM334.73 375.395l-160.654 -76.7178l7.80957 -69.0557
c9.16113 -1.11328 17.7344 -4.11621 25.3584 -8.59961c11.7803 18.7822 22.959 60.0801 23.0791 60.5381l0.577148 2.12598l96.3447 12.4268l0.120117 -0.0283203zM320.001 198.488l6.73145 90.9404l-90.6465 -11.7002
c-2.49121 -8.94141 -12.3848 -42.8164 -23.3467 -60.3135c10.7441 -7.83887 19.0176 -18.7949 23.5273 -31.5527zM157.044 297.835l-57.9326 24.4639c-0.564453 -10.9072 -3.51367 -25.542 -13.7695 -37.9111c-11.377 -13.7432 -29.1299 -21.4443 -52.7959 -23.0107
l6.85645 -66.2256l71.4014 -11.0518c7.65137 23.877 28.5264 41.8486 53.9785 45.3545zM20.6133 355.448l11.0996 -87.543c22.002 1.3877 38.3184 8.30664 48.5771 20.6758c9.83301 11.8691 12.1025 26.4326 12.3096 36.4688zM19.6846 29.6104l54.1895 -10.1562
l11.5234 74.1113l36.5723 29.3682c-8.94922 11.2939 -14.3242 25.5195 -14.3242 41c0 1.15332 0.113281 2.27148 0.166016 3.40039l-70.418 10.9111zM157.646 3.7373l9.92188 94.3213c-16.1426 1.52051 -30.5908 8.88672 -41.2676 19.9238l-34.8037 -27.9385
l-11.168 -71.8037zM120.789 163.934c0 -29.2578 23.8066 -53.0703 53.0654 -53.0654c29.2725 0 53.0801 23.8076 53.0801 53.0654c0 29.2725 -23.8076 53.0801 -53.0801 53.0801c-29.2578 0 -53.0654 -23.8066 -53.0654 -53.0801zM175.922 0.3125l53.3115 10.165
c-1.01953 14.6689 -0.0898438 44.3398 19.6094 68.1367c16.8945 20.3906 43.7344 31.4287 79.6416 33.1162l-6.83105 69.8096l-81.8496 -12.3418c0.139648 -1.74316 0.267578 -3.47559 0.267578 -5.24902c0 -32.7949 -23.9863 -60.0166 -55.3115 -65.2451l-10.3291 -98.1104
zM235.79 11.7158l100.603 19.1777l-7.27344 74.2773c-34.1436 -1.55078 -59.4932 -11.7871 -75.207 -30.7588c-17.7646 -21.4492 -18.915 -48.7725 -18.1221 -62.6963zM343.436 285.244l-6.5791 -84.2119l137.191 -16.5605l8.33105 65.6377zM455.152 127.77
l0.505859 -6.51953l-56.3438 6.53809l10.8359 -106.19l82.0703 -18.9307l-19.6201 164.787l-132.621 16.835l-1.47656 -0.231445l14.3623 -150.026l50.6475 -10.8857l-11.5771 112.14z" />
<glyph glyph-name="uniF13E" unicode="&#xf13e;" 
d="M155.784 192.014l231.12 -231.228c5.68652 -5.6875 5.68652 -14.8076 0 -20.4941c-2.79004 -2.89746 -6.54492 -4.29199 -10.1934 -4.29199s-7.40332 1.50195 -10.1934 4.29199l-241.528 241.421c-5.68652 5.68652 -5.68652 14.8066 0 20.4941l241.528 241.528
c5.68652 5.68652 14.8076 5.68652 20.4941 0c5.68652 -5.6875 5.68652 -14.8076 0 -20.4941z" />
    <glyph glyph-name="uniF13F" unicode="&#xf13f;" 
d="M481.438 310.673c6.35059 -6.35059 6.35059 -16.6699 -0.396484 -23.0205l-213.929 -213.929c-3.17578 -3.1748 -7.54102 -4.7627 -11.5098 -4.7627c-4.36621 0 -8.33496 1.58789 -11.5107 4.7627l-213.929 213.929c-6.35059 6.35059 -6.35059 16.6699 0 23.0205
s16.6699 6.35059 23.0205 0l202.815 -202.815l202.419 202.815c6.34961 6.35059 16.6689 6.35059 23.0195 0z" />
    <glyph glyph-name="uniF140" unicode="&#xf140;" 
d="M387.058 202.207c5.58008 -5.58008 5.58008 -14.8076 -0.107422 -20.3867l-241.528 -241.528c-2.78906 -2.89746 -6.54492 -4.29199 -10.1934 -4.29199c-3.64746 0 -7.40332 1.50195 -10.1934 4.29199c-5.68652 5.68652 -5.68652 14.8066 0 20.4941l231.228 231.228
l-231.228 231.228c-5.68652 5.68652 -5.68652 14.8066 0 20.4941c5.6875 5.68652 14.8076 5.68652 20.4941 0z" />
    <glyph glyph-name="uniF141" unicode="&#xf141;" 
d="M255.989 448c141.366 0 256.011 -114.623 256.011 -255.989s-114.645 -256.011 -256.011 -256.011s-255.989 114.645 -255.989 256.011s114.623 255.989 255.989 255.989zM309.28 51.252l4.39941 17.9219c-2.29688 -1.06152 -5.9375 -2.29688 -10.9658 -3.68359
c-5.07129 -1.3877 -9.55762 -2.10254 -13.5664 -2.10254c-8.49609 0 -14.499 1.40918 -17.9229 4.2041c-3.46777 2.7959 -5.17969 8.0625 -5.17969 15.7773c0 3.05566 0.520508 7.60742 1.58203 13.5664c1.08398 5.95996 2.27539 11.291 3.61914 15.9512l16.4062 58.0811
c1.60352 5.35254 2.70898 11.1826 3.29395 17.5752c0.584961 6.37207 0.888672 10.8359 0.888672 13.3721c0 12.2227 -4.31348 22.1699 -12.873 29.8203c-8.60449 7.62891 -20.8271 11.4863 -36.6689 11.4863c-8.77734 0 -18.0967 -1.56055 -27.957 -4.72461
c-9.86133 -3.12109 -20.1982 -6.8916 -30.9912 -11.291l-4.35645 -17.9443c3.16406 1.21387 7.02246 2.44922 11.4648 3.81445c4.48633 1.32227 8.86426 1.9502 13.1113 1.9502c8.69043 0 14.5205 -1.43066 17.6191 -4.35645
c3.05566 -2.9248 4.59473 -8.12695 4.59473 -15.5381c0 -4.16113 -0.476562 -8.73438 -1.47363 -13.7188c-0.99707 -4.94141 -2.25391 -10.251 -3.70605 -15.8418l-16.4922 -58.2549c-1.45215 -6.13281 -2.51367 -11.5938 -3.18555 -16.4482
c-0.650391 -4.85449 -0.975586 -9.62305 -0.975586 -14.2822c0 -11.9844 4.39941 -21.8457 13.2422 -29.626c8.8418 -7.7793 21.2598 -11.6807 37.21 -11.6807c10.3809 0 19.5049 1.36523 27.3506 4.0957c7.86621 2.73047 18.3555 6.6748 31.5322 11.877zM306.377 286.999
c7.64941 7.1084 11.4854 15.7334 11.4854 25.8545c0 10.0771 -3.83594 18.7461 -11.4854 25.9199c-7.62891 7.19531 -16.8613 10.7705 -27.6318 10.7705c-10.75 0 -20.0254 -3.5752 -27.7402 -10.7705c-7.65039 -7.17383 -11.5518 -15.8428 -11.5518 -25.9199
c0 -10.0986 3.87988 -18.7461 11.5518 -25.8545c7.71484 -7.1084 16.9902 -10.6631 27.7402 -10.6631c10.7705 0 19.9814 3.55469 27.6318 10.6631z" />
  </font>
</defs></svg>
